^C:\USERS\상훈\DESKTOP\SBSGA\PROJECT1\파일입출력\DEBUG\PCH.OBJ|C:\USERS\상훈\DESKTOP\SBSGA\PROJECT1\파일입출력\DEBUG\파일입출력.OBJ
C:\USERS\상훈\DESKTOP\SBSGA\PROJECT1\DEBUG\파일입출력.EXE
C:\USERS\상훈\DESKTOP\SBSGA\PROJECT1\DEBUG\파일입출력.ILK
C:\USERS\상훈\DESKTOP\SBSGA\PROJECT1\DEBUG\파일입출력.PDB
