^C:\USERS\상훈\DESKTOP\SBSGA\JS1104\대회 준비\정올 2 - 7.CPP
/c /ZI /JMC /nologo /W3 /WX- /diagnostics:classic /sdl /Od /D _UNICODE /D UNICODE /Gm- /EHsc /RTC1 /MDd /GS /fp:precise /permissive- /Zc:wchar_t /Zc:forScope /Zc:inline /Fo"X64\DEBUG\\" /Fd"X64\DEBUG\VC141.PDB" /Gd /TP /FC C:\USERS\상훈\DESKTOP\SBSGA\JS1104\대회 준비\정올 2 - 7.CPP
^C:\USERS\상훈\DESKTOP\SBSGA\JS1104\대회 준비\정올 2 - 6.CPP
/c /ZI /JMC /nologo /W3 /WX- /diagnostics:classic /sdl /Od /D _UNICODE /D UNICODE /Gm- /EHsc /RTC1 /MDd /GS /fp:precise /permissive- /Zc:wchar_t /Zc:forScope /Zc:inline /Fo"X64\DEBUG\\" /Fd"X64\DEBUG\VC141.PDB" /Gd /TP /FC C:\USERS\상훈\DESKTOP\SBSGA\JS1104\대회 준비\정올 2 - 6.CPP
