^C:\USERS\상훈\DESKTOP\SBSGA\JS1104\0420\ODD.CPP
/c /ZI /JMC /nologo /W3 /WX- /diagnostics:classic /sdl /Od /D _MBCS /Gm- /EHsc /RTC1 /MDd /GS /fp:precise /permissive- /Zc:wchar_t /Zc:forScope /Zc:inline /Fo"X64\DEBUG\\" /Fd"X64\DEBUG\VC141.PDB" /Gd /TP /FC C:\USERS\상훈\DESKTOP\SBSGA\JS1104\0420\ODD.CPP
^C:\USERS\상훈\DESKTOP\SBSGA\JS1104\0420\홀짝.CPP
/c /ZI /JMC /nologo /W3 /WX- /diagnostics:classic /sdl /Od /D _MBCS /Gm- /EHsc /RTC1 /MDd /GS /fp:precise /permissive- /Zc:wchar_t /Zc:forScope /Zc:inline /Fo"X64\DEBUG\\" /Fd"X64\DEBUG\VC141.PDB" /Gd /TP /FC C:\USERS\상훈\DESKTOP\SBSGA\JS1104\0420\홀짝.CPP
